KOSPI200 데이터를 가지고 선그래프 그려보기
…
# 맥 기본 로케일로 데이터를 받아오니 날짜가 제대로 불러지지 않았음
# withr 패키지의 with_locale 함수를 통해 임시로 로케일을 변경하여 세팅
withr::with_locale(c('LC_TIME' = 'C'),
  kospi <- quantmod::getSymbols("KRX:KOSPI200",src="google",auto.assign=F,from='2016-01-01','2016-12-15')
  )

# 받아온 데이터 tibble 형태로 정제
tidy_kospi = kospi %>% 
  broom::tidy() %>% 
  tbl_df %>% 
  mutate(series = stringr::str_replace_all(series, '\\.', '_'))

tidy_kospi

## # A tibble: 1,185 × 3
##         index            series  value
##        <date>             <chr>  <dbl>
## 1  2016-01-04 KRX_KOSPI200_Open 239.30
## 2  2016-01-05 KRX_KOSPI200_Open 233.96
## 3  2016-01-06 KRX_KOSPI200_Open 236.48
## 4  2016-01-07 KRX_KOSPI200_Open 233.23
## 5  2016-01-08 KRX_KOSPI200_Open 230.40
## 6  2016-01-11 KRX_KOSPI200_Open 230.77
## 7  2016-01-12 KRX_KOSPI200_Open 232.45
## 8  2016-01-13 KRX_KOSPI200_Open 232.24
## 9  2016-01-14 KRX_KOSPI200_Open 230.68
## 10 2016-01-15 KRX_KOSPI200_Open 233.38
## # ... with 1,175 more rows
…
