…
# 받아온 데이터 tibble 형태로 정제
tidy_kospi = kospi %>% 
  broom::tidy() %>% 
  tbl_df %>% 
  mutate(series = stringr::str_replace_all(series, '\\.', '_'))

tidy_kospi
```

```
## # A tibble: 1,185 × 3
##         index            series  value
##        <date>             <chr>  <dbl>
## 1  2016-01-04 KRX_KOSPI200_Open 239.30
## 2  2016-01-05 KRX_KOSPI200_Open 233.96
## 3  2016-01-06 KRX_KOSPI200_Open 236.48
## 4  2016-01-07 KRX_KOSPI200_Open 233.23
## 5  2016-01-08 KRX_KOSPI200_Open 230.40
## 6  2016-01-11 KRX_KOSPI200_Open 230.77
## 7  2016-01-12 KRX_KOSPI200_Open 232.45
## 8  2016-01-13 KRX_KOSPI200_Open 232.24
## 9  2016-01-14 KRX_KOSPI200_Open 230.68
## 10 2016-01-15 KRX_KOSPI200_Open 233.38
## # ... with 1,175 more rows
```
…
