…
# iris 데이터를 matrix로 변환시킨 후 t-SNE 적용
iris_tsne = tsne::tsne(as.matrix(iris[1:4]))

# 맵핑된 결과물에 원래의 레이블을 달아보자
df_iris_tsne = iris_tsne %>% 
  as.data.frame() %>% 
  tbl_df() %>% 
  mutate(species = iris$Species)
```

```r
df_iris_tsne

# A tibble: 150 x 3
#          V1       V2 species
#        <dbl>    <dbl>  <fctr>
#  1 12.197062 4.489194  setosa
#  2  9.148197 7.107035  setosa
#  3  9.200707 4.079943  setosa
#  4  7.615295 3.000362  setosa
#  5 11.569645 2.735391  setosa
#  6 14.241100 7.158919  setosa
#  7  9.526712 2.048142  setosa
#  8 10.980824 3.994848  setosa
#  9  5.954990 3.698045  setosa
# 10  8.069608 5.287997  setosa
# ... with 140 more rows
```
…
