…
원래 예제에서는 RGB 색공간을 그대로 사용했지만, 여기서는 Lab 색공간으로 옮겨서 작업을 진행한다. RGB인 상태로 해도 진행하는데 무리는 없다. 


```r
mandrill_df = mandrill_im %>% 
  sRGBtoLab() %>% # 원래 예제대로 따라간다면 이 부분은 skip
  as.data.frame(wide = 'c') %>%
  tbl_df()

mandrill_df
```

```
## # A tibble: 262,144 × 5
##        x     y      c.1       c.2       c.3
##    <int> <int>    <dbl>     <dbl>     <dbl>
## 1      1     1 61.79309 -5.198888 42.876971
## 2      2     1 23.94095 -1.785148 17.117049
## 3      3     1 21.00300 11.782596 26.022035
## 4      4     1 38.96015 -7.196971 27.442783
## 5      5     1 58.42075 -2.629929 37.749110
## 6      6     1 40.10130 -8.196894 35.581860
## 7      7     1 25.97737 16.642471 15.342146
## 8      8     1 12.56329 13.697664  2.240548
## 9      9     1 30.52502  1.667580 21.553337
## 10    10     1 32.70443 16.715056 20.719276
## # ... with 262,134 more rows
```
…
```r
mandrill_df_cluster = mandrill_df %>% 
  mutate(label = as.character(mandrill_cluster$cluster)) %>% 
  select(x, y, label) %>% 
  left_join(cluster_colors, by = 'label') %>% 
  select(-label) %>% 
  # as.cimg 를 사용하기 위해 포맷을 맞춘다 (x, y, cc, value 열로 구성)
  gather(key = 'cc', value = 'value', starts_with('c.')) %>% 
  mutate(cc = as.integer(gsub('c\\.', '', cc)))

mandrill_df_cluster
```

```
## # A tibble: 786,432 × 4
##        x     y    cc    value
##    <int> <int> <int>    <dbl>
## 1      1     1     1 62.58927
## 2      2     1     1 35.21639
## 3      3     1     1 35.21639
## 4      4     1     1 35.21639
## 5      5     1     1 62.58927
## 6      6     1     1 62.58927
## 7      7     1     1 35.21639
## 8      8     1     1 35.21639
## 9      9     1     1 35.21639
## 10    10     1     1 35.21639
## # ... with 786,422 more rows
```
…
